P1805_hw5_jn2761
…
}

try to simulate data, sumulate data with mu=0 first, created 5000 dataset with true mean=0

mu_c =c(1:7)
output = vector("list", length = 6)

  output[[1]] =  rerun(5000, sim_norm(mu = mu_c[1]-1)) %>%
  bind_rows()
  
  output[[1]] 

## # A tibble: 5,000 x 2
##    p.value     mean
##      <dbl>    <dbl>
##  1  0.785   0.00401
##  2  0.837  -0.783  
##  3  0.443  -0.409  
##  4  0.201   0.495  
##  5  0.513  -0.0349 
##  6  0.484   1.50   
##  7  0.136   0.689  
##  8  0.372  -0.533  
##  9  0.0763  0.176  
## 10  0.994  -1.64   
## #  with 4,990 more rows
…
